%YAML 1.1
%TAG !u! tag:unity3d.com,2011:
--- !u!114 &11400000
MonoBehaviour:
  m_ObjectHideFlags: 0
  m_CorrespondingSourceObject: {fileID: 0}
  m_PrefabInstance: {fileID: 0}
  m_PrefabAsset: {fileID: 0}
  m_GameObject: {fileID: 0}
  m_Enabled: 1
  m_EditorHideFlags: 0
  m_Script: {fileID: 11500000, guid: 46fddb8e43a223a4c840101a6fce403b, type: 3}
  m_Name: Axe
  m_EditorClassIdentifier: 
  ItemName: 
  Icon: {fileID: 21300000, guid: 172774604c1bee84185a69041576525b, type: 3}
  StrengthBonus: 3
  IntelligenceBonus: 0
  EnduranceBonus: 0
  equipmentType: 4
