%YAML 1.1
%TAG !u! tag:unity3d.com,2011:
--- !u!114 &11400000
MonoBehaviour:
  m_ObjectHideFlags: 0
  m_CorrespondingSourceObject: {fileID: 0}
  m_PrefabInstance: {fileID: 0}
  m_PrefabAsset: {fileID: 0}
  m_GameObject: {fileID: 0}
  m_Enabled: 1
  m_EditorHideFlags: 0
  m_Script: {fileID: 11500000, guid: 735202b9b22d7fd4ebada9825233dc81, type: 3}
  m_Name: Ingot
  m_EditorClassIdentifier: 
  ItemName: 
  Icon: {fileID: 21300000, guid: 3e4fcc84a0ac95b429c56452575f6021, type: 3}
